<svg width="16" height="15" viewBox="0 0 16 15" fill="#FFBF66">
<path fill-rule="evenodd" clip-rule="evenodd" d="M16 2.22235C15.4113 2.48342 14.7787 2.65991 14.1146 2.73924C14.7924 2.333 15.3129 1.68968 15.558 0.923145C14.9238 1.29933 14.2212 1.57252 13.4735 1.71975C12.8747 1.08175 12.0216 0.683105 11.0775 0.683105C9.26453 0.683105 7.79479 2.15285 7.79479 3.96563C7.79479 4.22293 7.82383 4.47343 7.87978 4.7137C5.15164 4.57682 2.73288 3.26996 1.11385 1.28396C0.83129 1.76879 0.669433 2.33265 0.669433 2.93424C0.669433 4.07307 1.24896 5.07782 2.12974 5.6665C1.59165 5.64947 1.0855 5.50178 0.64291 5.25591C0.64268 5.26962 0.64263 5.28334 0.64263 5.29717C0.64263 6.88765 1.77414 8.2144 3.27583 8.51594C3.00036 8.59092 2.71036 8.63105 2.411 8.63105C2.19947 8.63105 1.99383 8.61047 1.7934 8.57218C2.21113 9.87629 3.4234 10.8254 4.85983 10.8519C3.73637 11.7323 2.32098 12.2571 0.783053 12.2571C0.51809 12.257 0.256787 12.2415 0 12.2112C1.45271 13.1426 3.17816 13.686 5.03191 13.686C11.0698 13.686 14.3715 8.68408 14.3715 4.34626C14.3715 4.20395 14.3683 4.06238 14.3621 3.92162C15.0034 3.45879 15.5599 2.88063 16 2.22235Z"/>
</svg>
